﻿environment,SC,SP
Aspirin,0.266282504,0.017449144
Aspirin,0.41496023,0.104620556
Aspirin,0.309964695,0.084083675
Caffeine,0.066300334,0.13205962
Caffeine,0.076179573,0.135948532
Caffeine,0.043879268,0.160625401
CitricAcid,0.052178822,0.132766578
CitricAcid,0.094120947,0.074349192
CitricAcid,0.072526909,0.246561705
DMSO,0.058889424,0.162761317
DMSO,0.058327008,0.239698408
DMSO,0.034233879,0.274689143
EtOH,0.092364128,0.435468839
EtOH,0.040955808,0.148032455
EtOH,0.151691271,0.307997525
Lith,0.082230432,0.547928256
Lith,0.14334538,0.547538928
Lith,0.056757926,0.339256984
Nipagin,0.046855344,0.125207402
Nipagin,0.076625512,0.141496755
Nipagin,0.028068255,0.41434161
Peroxide,0.051534308,0.022965539
Peroxide,0.105648551,0.059074081
Peroxide,0.049312105,0.261134441
NaCl,0.045763614,0.091276165
NaCl,0.062449996,0.14484245
NaCl,0.080105089,0.078423766
Zinc,0.089648279,0.0001
Zinc,0.106553291,0.062806676
Zinc,0.098735338,0.084135729